%YAML 1.1
%TAG !u! tag:unity3d.com,2011:
--- !u!114 &11400000
MonoBehaviour:
  m_ObjectHideFlags: 0
  m_CorrespondingSourceObject: {fileID: 0}
  m_PrefabInstance: {fileID: 0}
  m_PrefabAsset: {fileID: 0}
  m_GameObject: {fileID: 0}
  m_Enabled: 1
  m_EditorHideFlags: 0
  m_Script: {fileID: 11500000, guid: 9f3ff61435fab92479d982ef977d9748, type: 3}
  m_Name: EnemyHealer (Apathetic)
  m_EditorClassIdentifier: 
  UnitName: Vaping Student
  Attack:
    EquipmentModifiers: 
    baseValue: 5
  Defense:
    EquipmentModifiers: 
    baseValue: 3
  Speed:
    EquipmentModifiers: 
    baseValue: 3
  MaxHP: 15
  MaxSp: 6
  Level: 3
  Position: 1
  SkillList:
  - {fileID: 11400000, guid: 39d5b2b84aa551b408dedfacbc95119f, type: 2}
  - {fileID: 11400000, guid: c5aef7a4f36b6d64f81be4045a3dffbb, type: 2}
  CharVisuals:
    PrefabModel: {fileID: 2079062769861915465, guid: 88541689c933b16488da62b721e0750d, type: 3}
    UnitImage: {fileID: 21300000, guid: 0f76b29367ef9ac4c8f96394dc085f90, type: 3}
  unitImage: {fileID: 21300000, guid: 0f76b29367ef9ac4c8f96394dc085f90, type: 3}
  Exp: 15
  currentAI: {fileID: 11400000, guid: b194ac3a05869c74b9d846771d85e6d4, type: 2}
  DropList:
  - {fileID: 11400000, guid: 0e7aa6408c72ea2498ead8e3381fb4fc, type: 2}
  - {fileID: 11400000, guid: 4a34ec54b399d724395f8f0aa56ce8ef, type: 2}
  - {fileID: 11400000, guid: d20512d011f077045b3bb78e8102b8e4, type: 2}
  - {fileID: 11400000, guid: 68ea4127c23a0864699c8a02e54861c3, type: 2}
  UnitVisualsList:
  - PrefabModel: {fileID: 8681487314320120015, guid: b00bac0a99c3f1147b1b863ac78a2f4b, type: 3}
    UnitImage: {fileID: 21300000, guid: dc41b802eeed9e641a4ffda474099694, type: 3}
  - PrefabModel: {fileID: 2079062769861915465, guid: 88541689c933b16488da62b721e0750d, type: 3}
    UnitImage: {fileID: 21300000, guid: 0f76b29367ef9ac4c8f96394dc085f90, type: 3}
  GoldDrop: 3
  defenseType: 2
