%YAML 1.1
%TAG !u! tag:unity3d.com,2011:
--- !u!114 &11400000
MonoBehaviour:
  m_ObjectHideFlags: 0
  m_CorrespondingSourceObject: {fileID: 0}
  m_PrefabInstance: {fileID: 0}
  m_PrefabAsset: {fileID: 0}
  m_GameObject: {fileID: 0}
  m_Enabled: 1
  m_EditorHideFlags: 0
  m_Script: {fileID: 11500000, guid: 9f3ff61435fab92479d982ef977d9748, type: 3}
  m_Name: Nerd 3
  m_EditorClassIdentifier: 
  UnitName: Nerd
  Attack:
    EquipmentModifiers: 
    baseValue: 20
  Defense:
    EquipmentModifiers: 
    baseValue: 14
  Speed:
    EquipmentModifiers: 
    baseValue: 7
  MaxHP: 70
  MaxSp: 10
  Level: 10
  Position: 0
  SkillList:
  - {fileID: 11400000, guid: 7620a013bb22af84b9907275a025dd77, type: 2}
  - {fileID: 11400000, guid: 645f2fe36918db4478ab95c916bfea7a, type: 2}
  - {fileID: 11400000, guid: 0b6eeb0ae627e5c40ae829bc5da043c1, type: 2}
  CharVisuals:
    PrefabModel: {fileID: 431622252156592447, guid: d6940025eb457434d8470b8276599054, type: 3}
    UnitImage: {fileID: 21300000, guid: c9a59449895229743b3ac95ffc072218, type: 3}
  unitImage: {fileID: 21300000, guid: c9a59449895229743b3ac95ffc072218, type: 3}
  Exp: 0
  currentAI: {fileID: 11400000, guid: 0b37af55800f635468c0c39d2431d25f, type: 2}
  DropList:
  - {fileID: 0}
  UnitVisualsList:
  - PrefabModel: {fileID: 431622252156592447, guid: d6940025eb457434d8470b8276599054, type: 3}
    UnitImage: {fileID: 21300000, guid: c9a59449895229743b3ac95ffc072218, type: 3}
  GoldDrop: 0
  defenseType: 3
