%YAML 1.1
%TAG !u! tag:unity3d.com,2011:
--- !u!114 &11400000
MonoBehaviour:
  m_ObjectHideFlags: 0
  m_CorrespondingSourceObject: {fileID: 0}
  m_PrefabInstance: {fileID: 0}
  m_PrefabAsset: {fileID: 0}
  m_GameObject: {fileID: 0}
  m_Enabled: 1
  m_EditorHideFlags: 0
  m_Script: {fileID: 11500000, guid: 820d85e885fc7514f8cb79b67a5bb386, type: 3}
  m_Name: Bandana
  m_EditorClassIdentifier: 
  ID: 50
  Name: Bandana
  Stackable: 0
  ItemSprite: {fileID: 21300000, guid: 99c9fca4a9260ae4ea2fd23390343742, type: 3}
  Cost: 5
  Description: 
  HPMod: 0
  AttackMod: 2
  DefenseMod: 3
  SpeedMod: 2
  Slot: 0
