%YAML 1.1
%TAG !u! tag:unity3d.com,2011:
--- !u!114 &11400000
MonoBehaviour:
  m_ObjectHideFlags: 0
  m_CorrespondingSourceObject: {fileID: 0}
  m_PrefabInstance: {fileID: 0}
  m_PrefabAsset: {fileID: 0}
  m_GameObject: {fileID: 0}
  m_Enabled: 1
  m_EditorHideFlags: 0
  m_Script: {fileID: 11500000, guid: 820d85e885fc7514f8cb79b67a5bb386, type: 3}
  m_Name: FaceMask
  m_EditorClassIdentifier: 
  ID: 51
  Name: Face Mask
  Stackable: 0
  ItemSprite: {fileID: 21300000, guid: 2e0c1f86a935585449141078a3a27650, type: 3}
  Cost: 10
  Description: 
  HPMod: 0
  AttackMod: 3
  DefenseMod: 3
  SpeedMod: 1
  Slot: 0
