%YAML 1.1
%TAG !u! tag:unity3d.com,2011:
--- !u!114 &11400000
MonoBehaviour:
  m_ObjectHideFlags: 0
  m_CorrespondingSourceObject: {fileID: 0}
  m_PrefabInstance: {fileID: 0}
  m_PrefabAsset: {fileID: 0}
  m_GameObject: {fileID: 0}
  m_Enabled: 1
  m_EditorHideFlags: 0
  m_Script: {fileID: 11500000, guid: 820d85e885fc7514f8cb79b67a5bb386, type: 3}
  m_Name: FootballHelmet
  m_EditorClassIdentifier: 
  ID: 53
  Name: Football Helmet
  Stackable: 0
  ItemSprite: {fileID: 21300000, guid: 81d72c2b38d558a4f8d0031d19478b44, type: 3}
  Cost: 15
  Description: 
  HPMod: 0
  AttackMod: 2
  DefenseMod: 5
  SpeedMod: 0
  Slot: 0
