%YAML 1.1
%TAG !u! tag:unity3d.com,2011:
--- !u!114 &11400000
MonoBehaviour:
  m_ObjectHideFlags: 0
  m_CorrespondingSourceObject: {fileID: 0}
  m_PrefabInstance: {fileID: 0}
  m_PrefabAsset: {fileID: 0}
  m_GameObject: {fileID: 0}
  m_Enabled: 1
  m_EditorHideFlags: 0
  m_Script: {fileID: 11500000, guid: 04c0c0ce1b66eb24aac3c3538270150c, type: 3}
  m_Name: NerdA
  m_EditorClassIdentifier: 
  Name: Nerd A
  sprite: {fileID: 21300000, guid: c9a59449895229743b3ac95ffc072218, type: 3}
