%YAML 1.1
%TAG !u! tag:unity3d.com,2011:
--- !u!114 &11400000
MonoBehaviour:
  m_ObjectHideFlags: 0
  m_CorrespondingSourceObject: {fileID: 0}
  m_PrefabInstance: {fileID: 0}
  m_PrefabAsset: {fileID: 0}
  m_GameObject: {fileID: 0}
  m_Enabled: 1
  m_EditorHideFlags: 0
  m_Script: {fileID: 11500000, guid: e0538985304e68e42a746cec64ed9849, type: 3}
  m_Name: Throw Ball
  m_EditorClassIdentifier: 
  Strength: 0
  StrengthMultiplier: 1.1
  Cost: 2
  SkillName: Throw Ball
  AnimationName: Attack
  SkillType: 0
  isSupportive: 0
  PositionRequirement: 1
  SkillSFX: {fileID: 8300000, guid: 0556fc82ee4c9ce4f87bf54879bb7913, type: 3}
  Description: Throws an object at the target strongly (LP Cost:2)
