%YAML 1.1
%TAG !u! tag:unity3d.com,2011:
--- !u!114 &11400000
MonoBehaviour:
  m_ObjectHideFlags: 0
  m_CorrespondingSourceObject: {fileID: 0}
  m_PrefabInstance: {fileID: 0}
  m_PrefabAsset: {fileID: 0}
  m_GameObject: {fileID: 0}
  m_Enabled: 1
  m_EditorHideFlags: 0
  m_Script: {fileID: 11500000, guid: b1b35695e14588b47b5e45eb480b9235, type: 3}
  m_Name: KeycardroomEncounter 1
  m_EditorClassIdentifier: 
  dialogs:
  - avatarType: {fileID: 11400000, guid: 9a35586519241224f94508fc252bb799, type: 2}
    Dialog: Oh, hey! Did you guys grab the flavors we asked?
  - avatarType: {fileID: 11400000, guid: 16b37da62022ad045849f89586ab64dc, type: 2}
    Dialog: Wuh?
  - avatarType: {fileID: 11400000, guid: 9a35586519241224f94508fc252bb799, type: 2}
    Dialog: "Y\u2019know, the popcorn and chamomile?"
  - avatarType: {fileID: 11400000, guid: b835576935c128a49b74ad0670b733d5, type: 2}
    Dialog: "Wait, you\u2019re not the guys we sent. Who are you?"
  - avatarType: {fileID: 11400000, guid: af427f61e96b1cc4daf7e32507dd6ad5, type: 2}
    Dialog: "We would like to borrow that Computer Lab keycard. We gotta uhh\u2026
      finish homework."
  - avatarType: {fileID: 11400000, guid: 9a35586519241224f94508fc252bb799, type: 2}
    Dialog: "Homework? Bah! Who cares?! C\u2019mon and chill with us! Have you guys
      tried vaping yet?"
  - avatarType: {fileID: 11400000, guid: b835576935c128a49b74ad0670b733d5, type: 2}
    Dialog: Besides, the nerds told us to hold onto this keycard and specifically
      not to let anyone in.
  - avatarType: {fileID: 11400000, guid: 16b37da62022ad045849f89586ab64dc, type: 2}
    Dialog: "Look, guys, can\u2019t you tell that vaping is not allowed in school?
      And even then, that stuff\u2019s bad for you!"
  - avatarType: {fileID: 11400000, guid: 9a35586519241224f94508fc252bb799, type: 2}
    Dialog: "But the flavors are so good! It\u2019s like having almost-unlimited
      cotton candy!"
  - avatarType: {fileID: 11400000, guid: af427f61e96b1cc4daf7e32507dd6ad5, type: 2}
    Dialog: "They\u2019re not listening."
