%YAML 1.1
%TAG !u! tag:unity3d.com,2011:
--- !u!114 &11400000
MonoBehaviour:
  m_ObjectHideFlags: 0
  m_CorrespondingSourceObject: {fileID: 0}
  m_PrefabInstance: {fileID: 0}
  m_PrefabAsset: {fileID: 0}
  m_GameObject: {fileID: 0}
  m_Enabled: 1
  m_EditorHideFlags: 0
  m_Script: {fileID: 11500000, guid: 28cadf85a8ffac844b6d184d415af864, type: 3}
  m_Name: Intimidate 1
  m_EditorClassIdentifier: 
  Strength: 0
  StrengthMultiplier: 1
  Cost: 0
  SkillName: Intimidate
  AnimationName: DebuffATK
  SkillType: 0
  AttackType: 0
  isSupportive: 0
  PositionRequirement: 1
  SkillSFX: {fileID: 8300000, guid: 1ba10d5bf199fc04c8676fb195be1210, type: 3}
  Description: Intimidates the target Lowering Attack
  Dialogue: Your foolish words will not sway me!
  BuffType: {fileID: 5791501978652618002, guid: 337292577772bc7439c2a5306e34d449, type: 3}
