%YAML 1.1
%TAG !u! tag:unity3d.com,2011:
--- !u!114 &11400000
MonoBehaviour:
  m_ObjectHideFlags: 0
  m_CorrespondingSourceObject: {fileID: 0}
  m_PrefabInstance: {fileID: 0}
  m_PrefabAsset: {fileID: 0}
  m_GameObject: {fileID: 0}
  m_Enabled: 1
  m_EditorHideFlags: 0
  m_Script: {fileID: 11500000, guid: 094a43c21413e264b89bd1c6a57b6edb, type: 3}
  m_Name: Player 2
  m_EditorClassIdentifier: 
  UnitName: Mandy
  Attack:
    EquipmentModifiers: 
    baseValue: 2
  Defense:
    EquipmentModifiers: 
    baseValue: 3
  Speed:
    EquipmentModifiers: 
    baseValue: 2
  MaxHP: 10
  MaxSp: 10
  Level: 1
  Position: 1
  SkillList:
  - {fileID: 11400000, guid: 6fe64f9534dfe834a8d5149aab3f6a81, type: 2}
  - {fileID: 11400000, guid: bb2cc9833b927de41bfbb8e065f9f7fe, type: 2}
  - {fileID: 11400000, guid: 741c9d05da780c4449661fb1b1116413, type: 2}
  - {fileID: 11400000, guid: 4c73e203ffbd60048a2c8f15bbe0abd9, type: 2}
  unitImage: {fileID: 0}
  Exp: 75
  ExpRequirement: 0
  CurrentHP: 0
  CurrentSP: 0
  AtkModifiers: 020000000300000003000000010000000200000003000000000000000300000002000000020000000300000002000000010000000100000000000000010000000100000001000000020000000200000002000000000000000000000000000000000000000000000000000000000000000000000000000000
  DefModifiers: 010000000200000000000000020000000000000001000000020000000200000002000000010000000100000002000000000000000200000002000000000000000100000003000000030000000200000002000000000000000000000000000000000000000000000000000000000000000000000000000000
  SpdModifiers: 000000000000000002000000000000000200000002000000000000000000000002000000000000000000000002000000000000000000000002000000000000000000000000000000000000000200000001000000000000000000000000000000000000000000000000000000000000000000000000000000
  LockedSkills:
  - LevelReq: 2
    LockedSkill: {fileID: 11400000, guid: 4c73e203ffbd60048a2c8f15bbe0abd9, type: 2}
  - LevelReq: 5
    LockedSkill: {fileID: 11400000, guid: 37b7d3b65d8b0fc4aaf227daf21d57ef, type: 2}
  - LevelReq: 8
    LockedSkill: {fileID: 11400000, guid: c2a55e670bbe3a14e8abd15451726b0d, type: 2}
  - LevelReq: 10
    LockedSkill: {fileID: 11400000, guid: 645f2fe36918db4478ab95c916bfea7a, type: 2}
  MaxLevel: 15
