%YAML 1.1
%TAG !u! tag:unity3d.com,2011:
--- !u!114 &11400000
MonoBehaviour:
  m_ObjectHideFlags: 0
  m_CorrespondingSourceObject: {fileID: 0}
  m_PrefabInstance: {fileID: 0}
  m_PrefabAsset: {fileID: 0}
  m_GameObject: {fileID: 0}
  m_Enabled: 1
  m_EditorHideFlags: 0
  m_Script: {fileID: 11500000, guid: b1b35695e14588b47b5e45eb480b9235, type: 3}
  m_Name: BossDefeat
  m_EditorClassIdentifier: 
  dialogs:
  - avatarType: {fileID: 11400000, guid: c91393e669583bf419df921b3a176ab0, type: 2}
    Dialog: Argh!
  - avatarType: {fileID: 11400000, guid: eae8935330219614eb4c4bbddb253888, type: 2}
    Dialog: Damn you beat me
  - avatarType: {fileID: 11400000, guid: c91393e669583bf419df921b3a176ab0, type: 2}
    Dialog: But your prin- i mean your brother is in another area...
  - avatarType: {fileID: 11400000, guid: 16b37da62022ad045849f89586ab64dc, type: 2}
    Dialog: Damn I guess they took Grimes somewhere else
  - avatarType: {fileID: 11400000, guid: af427f61e96b1cc4daf7e32507dd6ad5, type: 2}
    Dialog: There doesn't seem to be much left that we haven't seen on the first
      floor..
  - avatarType: {fileID: 11400000, guid: 16b37da62022ad045849f89586ab64dc, type: 2}
    Dialog: Let's check the second floor
