%YAML 1.1
%TAG !u! tag:unity3d.com,2011:
--- !u!114 &11400000
MonoBehaviour:
  m_ObjectHideFlags: 0
  m_CorrespondingSourceObject: {fileID: 0}
  m_PrefabInstance: {fileID: 0}
  m_PrefabAsset: {fileID: 0}
  m_GameObject: {fileID: 0}
  m_Enabled: 1
  m_EditorHideFlags: 0
  m_Script: {fileID: 11500000, guid: b1b35695e14588b47b5e45eb480b9235, type: 3}
  m_Name: Stairs1
  m_EditorClassIdentifier: 
  dialogs:
  - avatarType: {fileID: 11400000, guid: af427f61e96b1cc4daf7e32507dd6ad5, type: 2}
    Dialog: Wait, where are you going?
  - avatarType: {fileID: 11400000, guid: 16b37da62022ad045849f89586ab64dc, type: 2}
    Dialog: Uh... Up the stairs.
  - avatarType: {fileID: 11400000, guid: af427f61e96b1cc4daf7e32507dd6ad5, type: 2}
    Dialog: That leads to the roof, Billy.
  - avatarType: {fileID: 11400000, guid: af427f61e96b1cc4daf7e32507dd6ad5, type: 2}
    Dialog: Come on the Computer Room is near the stairs we came up from.
