%YAML 1.1
%TAG !u! tag:unity3d.com,2011:
--- !u!114 &11400000
MonoBehaviour:
  m_ObjectHideFlags: 0
  m_CorrespondingSourceObject: {fileID: 0}
  m_PrefabInstance: {fileID: 0}
  m_PrefabAsset: {fileID: 0}
  m_GameObject: {fileID: 0}
  m_Enabled: 1
  m_EditorHideFlags: 0
  m_Script: {fileID: 11500000, guid: 08132756596907e408160e507273765a, type: 3}
  m_Name: Keycard
  m_EditorClassIdentifier: 
  ID: 102
  Name: Keycard
  Stackable: 0
  ItemSprite: {fileID: 21300000, guid: ccd7ae34ad9374c4da6eef3b9651f2f5, type: 3}
  Cost: 12
  Description: 
