%YAML 1.1
%TAG !u! tag:unity3d.com,2011:
--- !u!64 &2852123590268085062
MeshCollider:
  m_ObjectHideFlags: 0
  m_CorrespondingSourceObject: {fileID: 0}
  m_PrefabInstance: {fileID: 0}
  m_PrefabAsset: {fileID: 0}
  m_GameObject: {fileID: 6996479082871015620}
  m_Material: {fileID: 0}
  m_IsTrigger: 0
  m_Enabled: 1
  serializedVersion: 4
  m_Convex: 1
  m_CookingOptions: 30
  m_Mesh: {fileID: -2403960947051152814, guid: 3674c4eb1423ae146bf8432f393065a6, type: 3}
--- !u!114 &2852123590268085056
MonoBehaviour:
  m_ObjectHideFlags: 0
  m_CorrespondingSourceObject: {fileID: 0}
  m_PrefabInstance: {fileID: 0}
  m_PrefabAsset: {fileID: 0}
  m_GameObject: {fileID: 6996479082871015620}
  m_Enabled: 1
  m_EditorHideFlags: 0
  m_Script: {fileID: 11500000, guid: 6552ff68c2379d344836a331a0c8dc0b, type: 3}
  m_Name: 
  m_EditorClassIdentifier: 
  interact:
    m_PersistentCalls:
      m_Calls:
      - m_Target: {fileID: 2852123590268085057}
        m_TargetAssemblyTypeName: SavePoint, Assembly-CSharp
        m_MethodName: OnSave
        m_Mode: 1
        m_Arguments:
          m_ObjectArgument: {fileID: 0}
          m_ObjectArgumentAssemblyTypeName: UnityEngine.Object, UnityEngine
          m_IntArgument: 0
          m_FloatArgument: 0
          m_StringArgument: 
          m_BoolArgument: 0
        m_CallState: 2
  ExitInteraction:
    m_PersistentCalls:
      m_Calls:
      - m_Target: {fileID: 0}
        m_TargetAssemblyTypeName: 
        m_MethodName: 
        m_Mode: 1
        m_Arguments:
          m_ObjectArgument: {fileID: 0}
          m_ObjectArgumentAssemblyTypeName: 
          m_IntArgument: 0
          m_FloatArgument: 0
          m_StringArgument: 
          m_BoolArgument: 0
        m_CallState: 2
--- !u!114 &2852123590268085057
MonoBehaviour:
  m_ObjectHideFlags: 0
  m_CorrespondingSourceObject: {fileID: 0}
  m_PrefabInstance: {fileID: 0}
  m_PrefabAsset: {fileID: 0}
  m_GameObject: {fileID: 6996479082871015620}
  m_Enabled: 1
  m_EditorHideFlags: 0
  m_Script: {fileID: 11500000, guid: ac831286edcfbb445b8d1409fef9c3b4, type: 3}
  m_Name: 
  m_EditorClassIdentifier: 
  collectible: {fileID: 0}
--- !u!1001 &8830691916829637644
PrefabInstance:
  m_ObjectHideFlags: 0
  serializedVersion: 2
  m_Modification:
    m_TransformParent: {fileID: 0}
    m_Modifications:
    - target: {fileID: 1987379545634862280, guid: 3674c4eb1423ae146bf8432f393065a6, type: 3}
      propertyPath: m_Name
      value: Tree
      objectReference: {fileID: 0}
    - target: {fileID: 1987379545634862280, guid: 3674c4eb1423ae146bf8432f393065a6, type: 3}
      propertyPath: m_Layer
      value: 7
      objectReference: {fileID: 0}
    - target: {fileID: 6910604946729428271, guid: 3674c4eb1423ae146bf8432f393065a6, type: 3}
      propertyPath: m_RootOrder
      value: 0
      objectReference: {fileID: 0}
    - target: {fileID: 6910604946729428271, guid: 3674c4eb1423ae146bf8432f393065a6, type: 3}
      propertyPath: m_LocalPosition.x
      value: -23.08
      objectReference: {fileID: 0}
    - target: {fileID: 6910604946729428271, guid: 3674c4eb1423ae146bf8432f393065a6, type: 3}
      propertyPath: m_LocalPosition.y
      value: -0.49
      objectReference: {fileID: 0}
    - target: {fileID: 6910604946729428271, guid: 3674c4eb1423ae146bf8432f393065a6, type: 3}
      propertyPath: m_LocalPosition.z
      value: -22.1
      objectReference: {fileID: 0}
    - target: {fileID: 6910604946729428271, guid: 3674c4eb1423ae146bf8432f393065a6, type: 3}
      propertyPath: m_LocalRotation.w
      value: 1
      objectReference: {fileID: 0}
    - target: {fileID: 6910604946729428271, guid: 3674c4eb1423ae146bf8432f393065a6, type: 3}
      propertyPath: m_LocalRotation.x
      value: 0
      objectReference: {fileID: 0}
    - target: {fileID: 6910604946729428271, guid: 3674c4eb1423ae146bf8432f393065a6, type: 3}
      propertyPath: m_LocalRotation.y
      value: 0
      objectReference: {fileID: 0}
    - target: {fileID: 6910604946729428271, guid: 3674c4eb1423ae146bf8432f393065a6, type: 3}
      propertyPath: m_LocalRotation.z
      value: 0
      objectReference: {fileID: 0}
    - target: {fileID: 6910604946729428271, guid: 3674c4eb1423ae146bf8432f393065a6, type: 3}
      propertyPath: m_LocalEulerAnglesHint.x
      value: 0
      objectReference: {fileID: 0}
    - target: {fileID: 6910604946729428271, guid: 3674c4eb1423ae146bf8432f393065a6, type: 3}
      propertyPath: m_LocalEulerAnglesHint.y
      value: 0
      objectReference: {fileID: 0}
    - target: {fileID: 6910604946729428271, guid: 3674c4eb1423ae146bf8432f393065a6, type: 3}
      propertyPath: m_LocalEulerAnglesHint.z
      value: 0
      objectReference: {fileID: 0}
    m_RemovedComponents: []
  m_SourcePrefab: {fileID: 100100000, guid: 3674c4eb1423ae146bf8432f393065a6, type: 3}
--- !u!1 &6996479082871015620 stripped
GameObject:
  m_CorrespondingSourceObject: {fileID: 1987379545634862280, guid: 3674c4eb1423ae146bf8432f393065a6, type: 3}
  m_PrefabInstance: {fileID: 8830691916829637644}
  m_PrefabAsset: {fileID: 0}
